################################################################################
# Copyright (c) 2010, 2023 Contributors to the Eclipse Foundation
#
# See the NOTICE file(s) distributed with this work for additional
# information regarding copyright ownership.
#
# This program and the accompanying materials are made available under the terms
# of the MIT License which is available at https://opensource.org/licenses/MIT
#
# SPDX-License-Identifier: MIT
################################################################################

option time explicit

# once 'time' before the event
time
event e
time
event e
time
event e

# twice 'time' before the event
time
time
event e

# three times 'time' before the event
time
time
time
event e

# once 'time' before the event
time
event e

# no 'time' before the event
event e
