<?xml version="1.0" encoding="utf-8"  standalone="no"?>
<!DOCTYPE svg PUBLIC "-//W3C//DTD SVG 1.1//EN" 
 "http://www.w3.org/Graphics/SVG/1.1/DTD/svg11.dtd">
<!--
  Copyright (c) 2010, 2023 Contributors to the Eclipse Foundation

  See the NOTICE file(s) distributed with this work for additional
  information regarding copyright ownership.

  This program and the accompanying materials are made available under the terms
  of the MIT License which is available at https://opensource.org/licenses/MIT

  SPDX-License-Identifier: MIT
-->
<svg width="600" height="480" viewBox="0 0 600 480"
 xmlns="http://www.w3.org/2000/svg"
 xmlns:xlink="http://www.w3.org/1999/xlink"
>

<title>gnuplot</title>
<desc>Produced by GNUPLOT 4.4 patchlevel 4 </desc>

<defs>

	<circle id='gpDot' r='0.5' stroke-width='0.5'/>
	<path id='gpPt0' stroke-width='0.222' stroke='currentColor' d='M-1,0 h2 M0,-1 v2'/>
	<path id='gpPt1' stroke-width='0.222' stroke='currentColor' d='M-1,-1 L1,1 M1,-1 L-1,1'/>
	<path id='gpPt2' stroke-width='0.222' stroke='currentColor' d='M-1,0 L1,0 M0,-1 L0,1 M-1,-1 L1,1 M-1,1 L1,-1'/>
	<rect id='gpPt3' stroke-width='0.222' stroke='currentColor' x='-1' y='-1' width='2' height='2'/>
	<rect id='gpPt4' stroke-width='0.222' stroke='currentColor' fill='currentColor' x='-1' y='-1' width='2' height='2'/>
	<circle id='gpPt5' stroke-width='0.222' stroke='currentColor' cx='0' cy='0' r='1'/>
	<use xlink:href='#gpPt5' id='gpPt6' fill='currentColor' stroke='none'/>
	<path id='gpPt7' stroke-width='0.222' stroke='currentColor' d='M0,-1.33 L-1.33,0.67 L1.33,0.67 z'/>
	<use xlink:href='#gpPt7' id='gpPt8' fill='currentColor' stroke='none'/>
	<use xlink:href='#gpPt7' id='gpPt9' stroke='currentColor' transform='rotate(180)'/>
	<use xlink:href='#gpPt9' id='gpPt10' fill='currentColor' stroke='none'/>
	<use xlink:href='#gpPt3' id='gpPt11' stroke='currentColor' transform='rotate(45)'/>
	<use xlink:href='#gpPt11' id='gpPt12' fill='currentColor' stroke='none'/>
</defs>
<g style="fill:none; color:white; stroke:currentColor; stroke-width:1.00; stroke-linecap:butt; stroke-linejoin:miter">
</g>
<g style="fill:none; color:black; stroke:currentColor; stroke-width:1.00; stroke-linecap:butt; stroke-linejoin:miter">
	<path  d='M71.9,422.4 L80.9,422.4 M575.0,422.4 L566.0,422.4 '></path>
	<g transform="translate(63.6,426.9)" style="stroke:none; fill:black; font-family:Arial; font-size:12.00pt; text-anchor:end">
		<text> 0</text>
	</g>
	<path  d='M71.9,341.3 L80.9,341.3 M575.0,341.3 L566.0,341.3 '></path>
	<g transform="translate(63.6,345.8)" style="stroke:none; fill:black; font-family:Arial; font-size:12.00pt; text-anchor:end">
		<text> 0.5</text>
	</g>
	<path  d='M71.9,260.1 L80.9,260.1 M575.0,260.1 L566.0,260.1 '></path>
	<g transform="translate(63.6,264.6)" style="stroke:none; fill:black; font-family:Arial; font-size:12.00pt; text-anchor:end">
		<text> 1</text>
	</g>
	<path  d='M71.9,179.0 L80.9,179.0 M575.0,179.0 L566.0,179.0 '></path>
	<g transform="translate(63.6,183.5)" style="stroke:none; fill:black; font-family:Arial; font-size:12.00pt; text-anchor:end">
		<text> 1.5</text>
	</g>
	<path  d='M71.9,97.8 L80.9,97.8 M575.0,97.8 L566.0,97.8 '></path>
	<g transform="translate(63.6,102.3)" style="stroke:none; fill:black; font-family:Arial; font-size:12.00pt; text-anchor:end">
		<text> 2</text>
	</g>
	<path  d='M71.9,16.7 L80.9,16.7 M575.0,16.7 L566.0,16.7 '></path>
	<g transform="translate(63.6,21.2)" style="stroke:none; fill:black; font-family:Arial; font-size:12.00pt; text-anchor:end">
		<text> 2.5</text>
	</g>
	<path  d='M71.9,422.4 L71.9,413.4 M71.9,16.7 L71.9,25.7 '></path>
	<g transform="translate(71.9,444.9)" style="stroke:none; fill:black; font-family:Arial; font-size:12.00pt; text-anchor:middle">
		<text> 0</text>
	</g>
	<path  d='M155.8,422.4 L155.8,413.4 M155.8,16.7 L155.8,25.7 '></path>
	<g transform="translate(155.8,444.9)" style="stroke:none; fill:black; font-family:Arial; font-size:12.00pt; text-anchor:middle">
		<text> 0.5</text>
	</g>
	<path  d='M239.6,422.4 L239.6,413.4 M239.6,16.7 L239.6,25.7 '></path>
	<g transform="translate(239.6,444.9)" style="stroke:none; fill:black; font-family:Arial; font-size:12.00pt; text-anchor:middle">
		<text> 1</text>
	</g>
	<path  d='M323.5,422.4 L323.5,413.4 M323.5,16.7 L323.5,25.7 '></path>
	<g transform="translate(323.5,444.9)" style="stroke:none; fill:black; font-family:Arial; font-size:12.00pt; text-anchor:middle">
		<text> 1.5</text>
	</g>
	<path  d='M407.3,422.4 L407.3,413.4 M407.3,16.7 L407.3,25.7 '></path>
	<g transform="translate(407.3,444.9)" style="stroke:none; fill:black; font-family:Arial; font-size:12.00pt; text-anchor:middle">
		<text> 2</text>
	</g>
	<path  d='M491.2,422.4 L491.2,413.4 M491.2,16.7 L491.2,25.7 '></path>
	<g transform="translate(491.2,444.9)" style="stroke:none; fill:black; font-family:Arial; font-size:12.00pt; text-anchor:middle">
		<text> 2.5</text>
	</g>
	<path  d='M575.0,422.4 L575.0,413.4 M575.0,16.7 L575.0,25.7 '></path>
	<g transform="translate(575.0,444.9)" style="stroke:none; fill:black; font-family:Arial; font-size:12.00pt; text-anchor:middle">
		<text> 3</text>
	</g>
	<path  d='M71.9,16.7 L71.9,422.4 L575.0,422.4 L575.0,16.7 L71.9,16.7 Z '></path>
	<g transform="translate(17.6,219.6) rotate(270)" style="stroke:none; fill:black; font-family:Arial; font-size:12.00pt; text-anchor:middle">
		<text>weibull(real a, b)</text>
	</g>
	<g transform="translate(323.4,471.9)" style="stroke:none; fill:black; font-family:Arial; font-size:12.00pt; text-anchor:middle">
		<text>x</text>
	</g>
	<g transform="translate(88.7,69.9)" style="stroke:none; fill:black; font-family:Arial; font-size:12.00pt; text-anchor:start">
		<text>weibull(0.5, 1.0)</text>
	</g>
	<g transform="translate(440.8,394.4)" style="stroke:none; fill:black; font-family:Arial; font-size:12.00pt; text-anchor:start">
		<text>weibull(1.0, 1.0)</text>
	</g>
	<g transform="translate(306.7,353.9)" style="stroke:none; fill:black; font-family:Arial; font-size:12.00pt; text-anchor:start">
		<text>weibull(1.5, 1.0)</text>
	</g>
	<g transform="translate(264.8,199.7)" style="stroke:none; fill:black; font-family:Arial; font-size:12.00pt; text-anchor:start">
		<text>weibull(5.0, 1.0)</text>
	</g>
</g>
	<g id="Plot_1"><title>Plot_1</title>
<g style="fill:none; color:red; stroke:currentColor; stroke-width:1.00; stroke-linecap:butt; stroke-linejoin:miter">
	<path  d='M76.7,16.7 L76.9,28.4 L78.6,90.2 L80.3,132.2 L82.0,163.1 L83.6,187.0 L85.3,206.2 L87.0,222.0 
		L88.7,235.4 L90.3,246.8 L92.0,256.7 L93.7,265.5 L95.4,273.2 L97.1,280.2 L98.7,286.4 L100.4,292.1 
		L102.1,297.3 L103.8,302.0 L105.4,306.4 L107.1,310.4 L108.8,314.2 L110.5,317.7 L112.1,320.9 L113.8,324.0 
		L115.5,326.8 L117.2,329.5 L118.9,332.1 L120.5,334.5 L122.2,336.7 L123.9,338.9 L125.6,340.9 L127.2,342.9 
		L128.9,344.7 L130.6,346.5 L132.3,348.2 L133.9,349.8 L135.6,351.3 L137.3,352.8 L139.0,354.2 L140.7,355.6 
		L142.3,356.9 L144.0,358.2 L145.7,359.4 L147.4,360.6 L149.0,361.7 L150.7,362.8 L152.4,363.8 L154.1,364.8 
		L155.8,365.8 L157.4,366.8 L159.1,367.7 L160.8,368.6 L162.5,369.4 L164.1,370.3 L165.8,371.1 L167.5,371.9 
		L169.2,372.7 L170.8,373.4 L172.5,374.1 L174.2,374.8 L175.9,375.5 L177.6,376.2 L179.2,376.8 L180.9,377.5 
		L182.6,378.1 L184.3,378.7 L185.9,379.3 L187.6,379.8 L189.3,380.4 L191.0,380.9 L192.6,381.5 L194.3,382.0 
		L196.0,382.5 L197.7,383.0 L199.4,383.5 L201.0,383.9 L202.7,384.4 L204.4,384.9 L206.1,385.3 L207.7,385.7 
		L209.4,386.2 L211.1,386.6 L212.8,387.0 L214.4,387.4 L216.1,387.8 L217.8,388.2 L219.5,388.5 L221.2,388.9 
		L222.8,389.3 L224.5,389.6 L226.2,390.0 L227.9,390.3 L229.5,390.7 L231.2,391.0 L232.9,391.3 L234.6,391.6 
		L236.2,391.9 L237.9,392.2 L239.6,392.6 L241.3,392.8 L243.0,393.1 L244.6,393.4 L246.3,393.7 L248.0,394.0 
		L249.7,394.3 L251.3,394.5 L253.0,394.8 L254.7,395.0 L256.4,395.3 L258.0,395.5 L259.7,395.8 L261.4,396.0 
		L263.1,396.3 L264.8,396.5 L266.4,396.7 L268.1,397.0 L269.8,397.2 L271.5,397.4 L273.1,397.6 L274.8,397.8 
		L276.5,398.1 L278.2,398.3 L279.8,398.5 L281.5,398.7 L283.2,398.9 L284.9,399.1 L286.6,399.3 L288.2,399.5 
		L289.9,399.6 L291.6,399.8 L293.3,400.0 L294.9,400.2 L296.6,400.4 L298.3,400.5 L300.0,400.7 L301.6,400.9 
		L303.3,401.1 L305.0,401.2 L306.7,401.4 L308.4,401.6 L310.0,401.7 L311.7,401.9 L313.4,402.0 L315.1,402.2 
		L316.7,402.3 L318.4,402.5 L320.1,402.6 L321.8,402.8 L323.5,402.9 L325.1,403.1 L326.8,403.2 L328.5,403.4 
		L330.2,403.5 L331.8,403.6 L333.5,403.8 L335.2,403.9 L336.9,404.0 L338.5,404.2 L340.2,404.3 L341.9,404.4 
		L343.6,404.5 L345.3,404.7 L346.9,404.8 L348.6,404.9 L350.3,405.0 L352.0,405.2 L353.6,405.3 L355.3,405.4 
		L357.0,405.5 L358.7,405.6 L360.3,405.7 L362.0,405.8 L363.7,406.0 L365.4,406.1 L367.1,406.2 L368.7,406.3 
		L370.4,406.4 L372.1,406.5 L373.8,406.6 L375.4,406.7 L377.1,406.8 L378.8,406.9 L380.5,407.0 L382.1,407.1 
		L383.8,407.2 L385.5,407.3 L387.2,407.4 L388.9,407.5 L390.5,407.6 L392.2,407.7 L393.9,407.8 L395.6,407.8 
		L397.2,407.9 L398.9,408.0 L400.6,408.1 L402.3,408.2 L403.9,408.3 L405.6,408.4 L407.3,408.5 L409.0,408.5 
		L410.7,408.6 L412.3,408.7 L414.0,408.8 L415.7,408.9 L417.4,408.9 L419.0,409.0 L420.7,409.1 L422.4,409.2 
		L424.1,409.3 L425.7,409.3 L427.4,409.4 L429.1,409.5 L430.8,409.6 L432.5,409.6 L434.1,409.7 L435.8,409.8 
		L437.5,409.8 L439.2,409.9 L440.8,410.0 L442.5,410.1 L444.2,410.1 L445.9,410.2 L447.5,410.3 L449.2,410.3 
		L450.9,410.4 L452.6,410.5 L454.3,410.5 L455.9,410.6 L457.6,410.7 L459.3,410.7 L461.0,410.8 L462.6,410.8 
		L464.3,410.9 L466.0,411.0 L467.7,411.0 L469.3,411.1 L471.0,411.2 L472.7,411.2 L474.4,411.3 L476.1,411.3 
		L477.7,411.4 L479.4,411.4 L481.1,411.5 L482.8,411.6 L484.4,411.6 L486.1,411.7 L487.8,411.7 L489.5,411.8 
		L491.2,411.8 L492.8,411.9 L494.5,412.0 L496.2,412.0 L497.9,412.1 L499.5,412.1 L501.2,412.2 L502.9,412.2 
		L504.6,412.3 L506.2,412.3 L507.9,412.4 L509.6,412.4 L511.3,412.5 L513.0,412.5 L514.6,412.6 L516.3,412.6 
		L518.0,412.7 L519.7,412.7 L521.3,412.8 L523.0,412.8 L524.7,412.9 L526.4,412.9 L528.0,412.9 L529.7,413.0 
		L531.4,413.0 L533.1,413.1 L534.8,413.1 L536.4,413.2 L538.1,413.2 L539.8,413.3 L541.5,413.3 L543.1,413.3 
		L544.8,413.4 L546.5,413.4 L548.2,413.5 L549.8,413.5 L551.5,413.6 L553.2,413.6 L554.9,413.6 L556.6,413.7 
		L558.2,413.7 L559.9,413.8 L561.6,413.8 L563.3,413.8 L564.9,413.9 L566.6,413.9 L568.3,414.0 L570.0,414.0 
		L571.6,414.0 L573.3,414.1 L575.0,414.1 '></path>
</g>
	</g>
	<g id="Plot_2"><title>Plot_2</title>
<g style="fill:none; color:green; stroke:currentColor; stroke-width:1.00; stroke-linecap:butt; stroke-linejoin:miter">
	<path  d='M71.9,260.1 L73.6,261.7 L75.3,263.3 L76.9,264.9 L78.6,266.5 L80.3,268.0 L82.0,269.6 L83.6,271.1 
		L85.3,272.6 L87.0,274.1 L88.7,275.6 L90.3,277.0 L92.0,278.5 L93.7,279.9 L95.4,281.3 L97.1,282.7 
		L98.7,284.1 L100.4,285.5 L102.1,286.9 L103.8,288.2 L105.4,289.5 L107.1,290.9 L108.8,292.2 L110.5,293.5 
		L112.1,294.7 L113.8,296.0 L115.5,297.3 L117.2,298.5 L118.9,299.8 L120.5,301.0 L122.2,302.2 L123.9,303.4 
		L125.6,304.6 L127.2,305.7 L128.9,306.9 L130.6,308.0 L132.3,309.2 L133.9,310.3 L135.6,311.4 L137.3,312.5 
		L139.0,313.6 L140.7,314.7 L142.3,315.8 L144.0,316.8 L145.7,317.9 L147.4,318.9 L149.0,320.0 L150.7,321.0 
		L152.4,322.0 L154.1,323.0 L155.8,324.0 L157.4,325.0 L159.1,325.9 L160.8,326.9 L162.5,327.8 L164.1,328.8 
		L165.8,329.7 L167.5,330.6 L169.2,331.5 L170.8,332.4 L172.5,333.3 L174.2,334.2 L175.9,335.1 L177.6,336.0 
		L179.2,336.8 L180.9,337.7 L182.6,338.5 L184.3,339.4 L185.9,340.2 L187.6,341.0 L189.3,341.8 L191.0,342.6 
		L192.6,343.4 L194.3,344.2 L196.0,345.0 L197.7,345.7 L199.4,346.5 L201.0,347.3 L202.7,348.0 L204.4,348.8 
		L206.1,349.5 L207.7,350.2 L209.4,350.9 L211.1,351.6 L212.8,352.3 L214.4,353.0 L216.1,353.7 L217.8,354.4 
		L219.5,355.1 L221.2,355.8 L222.8,356.4 L224.5,357.1 L226.2,357.7 L227.9,358.4 L229.5,359.0 L231.2,359.6 
		L232.9,360.3 L234.6,360.9 L236.2,361.5 L237.9,362.1 L239.6,362.7 L241.3,363.3 L243.0,363.9 L244.6,364.5 
		L246.3,365.0 L248.0,365.6 L249.7,366.2 L251.3,366.7 L253.0,367.3 L254.7,367.8 L256.4,368.4 L258.0,368.9 
		L259.7,369.5 L261.4,370.0 L263.1,370.5 L264.8,371.0 L266.4,371.5 L268.1,372.0 L269.8,372.5 L271.5,373.0 
		L273.1,373.5 L274.8,374.0 L276.5,374.5 L278.2,375.0 L279.8,375.4 L281.5,375.9 L283.2,376.4 L284.9,376.8 
		L286.6,377.3 L288.2,377.7 L289.9,378.2 L291.6,378.6 L293.3,379.0 L294.9,379.5 L296.6,379.9 L298.3,380.3 
		L300.0,380.7 L301.6,381.2 L303.3,381.6 L305.0,382.0 L306.7,382.4 L308.4,382.8 L310.0,383.2 L311.7,383.6 
		L313.4,384.0 L315.1,384.3 L316.7,384.7 L318.4,385.1 L320.1,385.5 L321.8,385.8 L323.5,386.2 L325.1,386.6 
		L326.8,386.9 L328.5,387.3 L330.2,387.6 L331.8,388.0 L333.5,388.3 L335.2,388.6 L336.9,389.0 L338.5,389.3 
		L340.2,389.6 L341.9,390.0 L343.6,390.3 L345.3,390.6 L346.9,390.9 L348.6,391.2 L350.3,391.5 L352.0,391.9 
		L353.6,392.2 L355.3,392.5 L357.0,392.8 L358.7,393.0 L360.3,393.3 L362.0,393.6 L363.7,393.9 L365.4,394.2 
		L367.1,394.5 L368.7,394.8 L370.4,395.0 L372.1,395.3 L373.8,395.6 L375.4,395.8 L377.1,396.1 L378.8,396.4 
		L380.5,396.6 L382.1,396.9 L383.8,397.1 L385.5,397.4 L387.2,397.6 L388.9,397.9 L390.5,398.1 L392.2,398.4 
		L393.9,398.6 L395.6,398.8 L397.2,399.1 L398.9,399.3 L400.6,399.5 L402.3,399.8 L403.9,400.0 L405.6,400.2 
		L407.3,400.4 L409.0,400.7 L410.7,400.9 L412.3,401.1 L414.0,401.3 L415.7,401.5 L417.4,401.7 L419.0,401.9 
		L420.7,402.1 L422.4,402.3 L424.1,402.5 L425.7,402.7 L427.4,402.9 L429.1,403.1 L430.8,403.3 L432.5,403.5 
		L434.1,403.7 L435.8,403.9 L437.5,404.1 L439.2,404.2 L440.8,404.4 L442.5,404.6 L444.2,404.8 L445.9,405.0 
		L447.5,405.1 L449.2,405.3 L450.9,405.5 L452.6,405.6 L454.3,405.8 L455.9,406.0 L457.6,406.1 L459.3,406.3 
		L461.0,406.5 L462.6,406.6 L464.3,406.8 L466.0,406.9 L467.7,407.1 L469.3,407.2 L471.0,407.4 L472.7,407.5 
		L474.4,407.7 L476.1,407.8 L477.7,408.0 L479.4,408.1 L481.1,408.3 L482.8,408.4 L484.4,408.5 L486.1,408.7 
		L487.8,408.8 L489.5,408.9 L491.2,409.1 L492.8,409.2 L494.5,409.3 L496.2,409.5 L497.9,409.6 L499.5,409.7 
		L501.2,409.9 L502.9,410.0 L504.6,410.1 L506.2,410.2 L507.9,410.3 L509.6,410.5 L511.3,410.6 L513.0,410.7 
		L514.6,410.8 L516.3,410.9 L518.0,411.0 L519.7,411.2 L521.3,411.3 L523.0,411.4 L524.7,411.5 L526.4,411.6 
		L528.0,411.7 L529.7,411.8 L531.4,411.9 L533.1,412.0 L534.8,412.1 L536.4,412.2 L538.1,412.3 L539.8,412.4 
		L541.5,412.5 L543.1,412.6 L544.8,412.7 L546.5,412.8 L548.2,412.9 L549.8,413.0 L551.5,413.1 L553.2,413.2 
		L554.9,413.3 L556.6,413.4 L558.2,413.5 L559.9,413.6 L561.6,413.6 L563.3,413.7 L564.9,413.8 L566.6,413.9 
		L568.3,414.0 L570.0,414.1 L571.6,414.2 L573.3,414.2 L575.0,414.3 '></path>
</g>
	</g>
	<g id="Plot_3"><title>Plot_3</title>
<g style="fill:none; color:blue; stroke:currentColor; stroke-width:1.00; stroke-linecap:butt; stroke-linejoin:miter">
	<path  d='M71.9,422.4 L73.6,398.1 L75.3,388.1 L76.9,380.5 L78.6,374.1 L80.3,368.6 L82.0,363.6 L83.6,359.2 
		L85.3,355.1 L87.0,351.3 L88.7,347.8 L90.3,344.6 L92.0,341.5 L93.7,338.7 L95.4,336.0 L97.1,333.4 
		L98.7,331.1 L100.4,328.8 L102.1,326.7 L103.8,324.7 L105.4,322.9 L107.1,321.1 L108.8,319.4 L110.5,317.9 
		L112.1,316.4 L113.8,315.0 L115.5,313.7 L117.2,312.5 L118.9,311.3 L120.5,310.3 L122.2,309.3 L123.9,308.4 
		L125.6,307.5 L127.2,306.7 L128.9,306.0 L130.6,305.3 L132.3,304.7 L133.9,304.2 L135.6,303.7 L137.3,303.2 
		L139.0,302.9 L140.7,302.5 L142.3,302.2 L144.0,302.0 L145.7,301.8 L147.4,301.7 L149.0,301.6 L150.7,301.5 
		L152.4,301.5 L154.1,301.5 L155.8,301.5 L157.4,301.6 L159.1,301.8 L160.8,301.9 L162.5,302.1 L164.1,302.3 
		L165.8,302.6 L167.5,302.9 L169.2,303.2 L170.8,303.6 L172.5,303.9 L174.2,304.3 L175.9,304.8 L177.6,305.2 
		L179.2,305.7 L180.9,306.2 L182.6,306.7 L184.3,307.3 L185.9,307.8 L187.6,308.4 L189.3,309.0 L191.0,309.6 
		L192.6,310.3 L194.3,310.9 L196.0,311.6 L197.7,312.3 L199.4,313.0 L201.0,313.7 L202.7,314.4 L204.4,315.2 
		L206.1,315.9 L207.7,316.7 L209.4,317.5 L211.1,318.3 L212.8,319.1 L214.4,319.9 L216.1,320.7 L217.8,321.5 
		L219.5,322.4 L221.2,323.2 L222.8,324.1 L224.5,324.9 L226.2,325.8 L227.9,326.7 L229.5,327.5 L231.2,328.4 
		L232.9,329.3 L234.6,330.2 L236.2,331.1 L237.9,332.0 L239.6,332.9 L241.3,333.7 L243.0,334.6 L244.6,335.5 
		L246.3,336.4 L248.0,337.3 L249.7,338.3 L251.3,339.2 L253.0,340.1 L254.7,341.0 L256.4,341.9 L258.0,342.8 
		L259.7,343.7 L261.4,344.6 L263.1,345.5 L264.8,346.3 L266.4,347.2 L268.1,348.1 L269.8,349.0 L271.5,349.9 
		L273.1,350.8 L274.8,351.7 L276.5,352.5 L278.2,353.4 L279.8,354.3 L281.5,355.1 L283.2,356.0 L284.9,356.8 
		L286.6,357.7 L288.2,358.5 L289.9,359.4 L291.6,360.2 L293.3,361.0 L294.9,361.8 L296.6,362.7 L298.3,363.5 
		L300.0,364.3 L301.6,365.1 L303.3,365.9 L305.0,366.7 L306.7,367.4 L308.4,368.2 L310.0,369.0 L311.7,369.8 
		L313.4,370.5 L315.1,371.3 L316.7,372.0 L318.4,372.7 L320.1,373.5 L321.8,374.2 L323.5,374.9 L325.1,375.6 
		L326.8,376.3 L328.5,377.0 L330.2,377.7 L331.8,378.4 L333.5,379.1 L335.2,379.7 L336.9,380.4 L338.5,381.1 
		L340.2,381.7 L341.9,382.4 L343.6,383.0 L345.3,383.6 L346.9,384.2 L348.6,384.8 L350.3,385.5 L352.0,386.1 
		L353.6,386.6 L355.3,387.2 L357.0,387.8 L358.7,388.4 L360.3,388.9 L362.0,389.5 L363.7,390.1 L365.4,390.6 
		L367.1,391.1 L368.7,391.7 L370.4,392.2 L372.1,392.7 L373.8,393.2 L375.4,393.7 L377.1,394.2 L378.8,394.7 
		L380.5,395.2 L382.1,395.7 L383.8,396.1 L385.5,396.6 L387.2,397.1 L388.9,397.5 L390.5,397.9 L392.2,398.4 
		L393.9,398.8 L395.6,399.2 L397.2,399.7 L398.9,400.1 L400.6,400.5 L402.3,400.9 L403.9,401.3 L405.6,401.7 
		L407.3,402.1 L409.0,402.4 L410.7,402.8 L412.3,403.2 L414.0,403.5 L415.7,403.9 L417.4,404.2 L419.0,404.6 
		L420.7,404.9 L422.4,405.3 L424.1,405.6 L425.7,405.9 L427.4,406.2 L429.1,406.5 L430.8,406.8 L432.5,407.1 
		L434.1,407.4 L435.8,407.7 L437.5,408.0 L439.2,408.3 L440.8,408.6 L442.5,408.9 L444.2,409.1 L445.9,409.4 
		L447.5,409.7 L449.2,409.9 L450.9,410.2 L452.6,410.4 L454.3,410.6 L455.9,410.9 L457.6,411.1 L459.3,411.3 
		L461.0,411.6 L462.6,411.8 L464.3,412.0 L466.0,412.2 L467.7,412.4 L469.3,412.6 L471.0,412.8 L472.7,413.0 
		L474.4,413.2 L476.1,413.4 L477.7,413.6 L479.4,413.8 L481.1,414.0 L482.8,414.2 L484.4,414.3 L486.1,414.5 
		L487.8,414.7 L489.5,414.8 L491.2,415.0 L492.8,415.2 L494.5,415.3 L496.2,415.5 L497.9,415.6 L499.5,415.8 
		L501.2,415.9 L502.9,416.1 L504.6,416.2 L506.2,416.3 L507.9,416.5 L509.6,416.6 L511.3,416.7 L513.0,416.9 
		L514.6,417.0 L516.3,417.1 L518.0,417.2 L519.7,417.3 L521.3,417.4 L523.0,417.6 L524.7,417.7 L526.4,417.8 
		L528.0,417.9 L529.7,418.0 L531.4,418.1 L533.1,418.2 L534.8,418.3 L536.4,418.4 L538.1,418.5 L539.8,418.6 
		L541.5,418.6 L543.1,418.7 L544.8,418.8 L546.5,418.9 L548.2,419.0 L549.8,419.1 L551.5,419.1 L553.2,419.2 
		L554.9,419.3 L556.6,419.4 L558.2,419.4 L559.9,419.5 L561.6,419.6 L563.3,419.6 L564.9,419.7 L566.6,419.8 
		L568.3,419.8 L570.0,419.9 L571.6,419.9 L573.3,420.0 L575.0,420.1 '></path>
</g>
	</g>
	<g id="Plot_4"><title>Plot_4</title>
<g style="fill:none; color:cyan; stroke:currentColor; stroke-width:1.00; stroke-linecap:butt; stroke-linejoin:miter">
	<path  d='M71.9,422.4 L73.6,422.4 L75.3,422.4 L76.9,422.4 L78.6,422.4 L80.3,422.4 L82.0,422.4 L83.6,422.4 
		L85.3,422.4 L87.0,422.3 L88.7,422.3 L90.3,422.3 L92.0,422.2 L93.7,422.2 L95.4,422.1 L97.1,422.0 
		L98.7,421.9 L100.4,421.7 L102.1,421.5 L103.8,421.3 L105.4,421.1 L107.1,420.8 L108.8,420.5 L110.5,420.1 
		L112.1,419.7 L113.8,419.2 L115.5,418.7 L117.2,418.1 L118.9,417.4 L120.5,416.7 L122.2,415.8 L123.9,414.9 
		L125.6,413.9 L127.2,412.8 L128.9,411.6 L130.6,410.3 L132.3,408.9 L133.9,407.3 L135.6,405.6 L137.3,403.8 
		L139.0,401.8 L140.7,399.7 L142.3,397.5 L144.0,395.1 L145.7,392.5 L147.4,389.7 L149.0,386.8 L150.7,383.7 
		L152.4,380.4 L154.1,376.9 L155.8,373.2 L157.4,369.4 L159.1,365.3 L160.8,361.0 L162.5,356.5 L164.1,351.8 
		L165.8,346.9 L167.5,341.8 L169.2,336.4 L170.8,330.9 L172.5,325.1 L174.2,319.2 L175.9,313.0 L177.6,306.7 
		L179.2,300.1 L180.9,293.4 L182.6,286.6 L184.3,279.5 L185.9,272.4 L187.6,265.1 L189.3,257.7 L191.0,250.2 
		L192.6,242.7 L194.3,235.1 L196.0,227.5 L197.7,219.9 L199.4,212.3 L201.0,204.8 L202.7,197.4 L204.4,190.1 
		L206.1,182.9 L207.7,175.9 L209.4,169.2 L211.1,162.7 L212.8,156.5 L214.4,150.6 L216.1,145.1 L217.8,140.0 
		L219.5,135.3 L221.2,131.1 L222.8,127.4 L224.5,124.3 L226.2,121.7 L227.9,119.7 L229.5,118.3 L231.2,117.6 
		L232.9,117.5 L234.6,118.0 L236.2,119.3 L237.9,121.3 L239.6,123.9 L241.3,127.2 L243.0,131.2 L244.6,135.9 
		L246.3,141.2 L248.0,147.2 L249.7,153.7 L251.3,160.8 L253.0,168.4 L254.7,176.5 L256.4,185.1 L258.0,194.0 
		L259.7,203.3 L261.4,212.8 L263.1,222.6 L264.8,232.5 L266.4,242.6 L268.1,252.6 L269.8,262.7 L271.5,272.8 
		L273.1,282.7 L274.8,292.4 L276.5,301.9 L278.2,311.2 L279.8,320.1 L281.5,328.7 L283.2,337.0 L284.9,344.8 
		L286.6,352.3 L288.2,359.3 L289.9,365.8 L291.6,372.0 L293.3,377.6 L294.9,382.8 L296.6,387.6 L298.3,392.0 
		L300.0,395.9 L301.6,399.5 L303.3,402.7 L305.0,405.5 L306.7,408.0 L308.4,410.2 L310.0,412.1 L311.7,413.8 
		L313.4,415.3 L315.1,416.5 L316.7,417.6 L318.4,418.4 L320.1,419.2 L321.8,419.8 L323.5,420.3 L325.1,420.8 
		L326.8,421.1 L328.5,421.4 L330.2,421.6 L331.8,421.8 L333.5,421.9 L335.2,422.0 L336.9,422.1 L338.5,422.2 
		L340.2,422.3 L341.9,422.3 L343.6,422.3 L345.3,422.3 L346.9,422.4 L348.6,422.4 L350.3,422.4 L352.0,422.4 
		L353.6,422.4 L355.3,422.4 L357.0,422.4 L358.7,422.4 L360.3,422.4 L362.0,422.4 L363.7,422.4 L365.4,422.4 
		L367.1,422.4 L368.7,422.4 L370.4,422.4 L372.1,422.4 L373.8,422.4 L375.4,422.4 L377.1,422.4 L378.8,422.4 
		L380.5,422.4 L382.1,422.4 L383.8,422.4 L385.5,422.4 L387.2,422.4 L388.9,422.4 L390.5,422.4 L392.2,422.4 
		L393.9,422.4 L395.6,422.4 L397.2,422.4 L398.9,422.4 L400.6,422.4 L402.3,422.4 L403.9,422.4 L405.6,422.4 
		L407.3,422.4 L409.0,422.4 L410.7,422.4 L412.3,422.4 L414.0,422.4 L415.7,422.4 L417.4,422.4 L419.0,422.4 
		L420.7,422.4 L422.4,422.4 L424.1,422.4 L425.7,422.4 L427.4,422.4 L429.1,422.4 L430.8,422.4 L432.5,422.4 
		L434.1,422.4 L435.8,422.4 L437.5,422.4 L439.2,422.4 L440.8,422.4 L442.5,422.4 L444.2,422.4 L445.9,422.4 
		L447.5,422.4 L449.2,422.4 L450.9,422.4 L452.6,422.4 L454.3,422.4 L455.9,422.4 L457.6,422.4 L459.3,422.4 
		L461.0,422.4 L462.6,422.4 L464.3,422.4 L466.0,422.4 L467.7,422.4 L469.3,422.4 L471.0,422.4 L472.7,422.4 
		L474.4,422.4 L476.1,422.4 L477.7,422.4 L479.4,422.4 L481.1,422.4 L482.8,422.4 L484.4,422.4 L486.1,422.4 
		L487.8,422.4 L489.5,422.4 L491.2,422.4 L492.8,422.4 L494.5,422.4 L496.2,422.4 L497.9,422.4 L499.5,422.4 
		L501.2,422.4 L502.9,422.4 L504.6,422.4 L506.2,422.4 L507.9,422.4 L509.6,422.4 L511.3,422.4 L513.0,422.4 
		L514.6,422.4 L516.3,422.4 L518.0,422.4 L519.7,422.4 L521.3,422.4 L523.0,422.4 L524.7,422.4 L526.4,422.4 
		L528.0,422.4 L529.7,422.4 L531.4,422.4 L533.1,422.4 L534.8,422.4 L536.4,422.4 L538.1,422.4 L539.8,422.4 
		L541.5,422.4 L543.1,422.4 L544.8,422.4 L546.5,422.4 L548.2,422.4 L549.8,422.4 L551.5,422.4 L553.2,422.4 
		L554.9,422.4 L556.6,422.4 L558.2,422.4 L559.9,422.4 L561.6,422.4 L563.3,422.4 L564.9,422.4 L566.6,422.4 
		L568.3,422.4 L570.0,422.4 L571.6,422.4 L573.3,422.4 L575.0,422.4 '></path>
</g>
	</g>
<g style="fill:none; color:black; stroke:currentColor; stroke-width:1.00; stroke-linecap:butt; stroke-linejoin:miter">
	<path  d='M71.9,16.7 L71.9,422.4 L575.0,422.4 L575.0,16.7 L71.9,16.7 Z '></path>
</g>
</svg>

