ERROR: CIF checks tester failed due to unsatisfied preconditions:

  ----------------------------------
  (1/1) Edge has a multi-assignment.
  ----------------------------------
   * In location "a.l3":
     - edge e do (va, vb) := (1, 2) goto l4;
                          ^
   * In automaton "all":
     - edge e do (va, vb) := (1, 2);
                          ^
     - edge e do (vb, va) := (3, 4);
                          ^
   * In location "g.A.l3":
     - edge e do (va, vb) := (1, 2) goto l4;
                          ^
   * In automaton "multi_asgn":
     - edge e do (va, vb) := (1, 2);
                          ^
