Reading CIF file "datasynth/forward_reach_on.cif".
Preprocessing CIF specification.
Converting CIF specification to internal format.

CIF variables and location pointers:
  Nr     Kind               Type       Name  Group  BDD vars  CIF values  BDD values  Values used
  -----  -----------------  ---------  ----  -----  --------  ----------  ----------  -----------
  1      discrete variable  int[0..5]  p.v   0      3 * 2     6 * 2       8 * 2       75%
  2      discrete variable  int[0..5]  p.w   1      3 * 2     6 * 2       8 * 2       75%
  -----  -----------------  ---------  ----  -----  --------  ----------  ----------  -----------
  Total                                      2      12        24          32          75%

Applying variable ordering:
  Applying 4 orderers, sequentially:
    Applying model variable order:
      Effect: both

    Applying DCSH algorithm:
      Metric: wes
      Relations: legacy
      Effect: var-order
      Number of hyper-edges: 17

      Applying Weighted Cuthill-McKee algorithm:
        Node finder: george-liu
        Relations: legacy
        Effect: var-order
        Number of graph edges: 1

        Total span:   2 (total)   0.12 (avg/edge) / WES:   0.117647 (total)   0.006920 (avg/edge) [before]
        Total span:   2 (total)   0.12 (avg/edge) / WES:   0.117647 (total)   0.006920 (avg/edge) [after]

      Found new best variable order.

      Applying Sloan algorithm:
        Relations: legacy
        Effect: var-order
        Number of graph edges: 1

        Total span:   2 (total)   0.12 (avg/edge) / WES:   0.117647 (total)   0.006920 (avg/edge) [before]
        Total span:   2 (total)   0.12 (avg/edge) / WES:   0.117647 (total)   0.006920 (avg/edge) [after]

      Applying 2 orderers, sequentially:
        Applying Weighted Cuthill-McKee algorithm:
          Node finder: george-liu
          Relations: legacy
          Effect: var-order
          Number of graph edges: 1

          Total span:   2 (total)   0.12 (avg/edge) / WES:   0.117647 (total)   0.006920 (avg/edge) [before]
          Total span:   2 (total)   0.12 (avg/edge) / WES:   0.117647 (total)   0.006920 (avg/edge) [after]

        Reversing the variable order:
          Relations: legacy
          Effect: var-order
          Number of hyper-edges: 17

          Total span:   2 (total)   0.12 (avg/edge) / WES:   0.117647 (total)   0.006920 (avg/edge) [before]
          Total span:   2 (total)   0.12 (avg/edge) / WES:   0.117647 (total)   0.006920 (avg/edge) [reversed]

      Applying 2 orderers, sequentially:
        Applying Sloan algorithm:
          Relations: legacy
          Effect: var-order
          Number of graph edges: 1

          Total span:   2 (total)   0.12 (avg/edge) / WES:   0.117647 (total)   0.006920 (avg/edge) [before]
          Total span:   2 (total)   0.12 (avg/edge) / WES:   0.117647 (total)   0.006920 (avg/edge) [after]

        Reversing the variable order:
          Relations: legacy
          Effect: var-order
          Number of hyper-edges: 17

          Total span:   2 (total)   0.12 (avg/edge) / WES:   0.117647 (total)   0.006920 (avg/edge) [before]
          Total span:   2 (total)   0.12 (avg/edge) / WES:   0.117647 (total)   0.006920 (avg/edge) [reversed]

    Applying FORCE algorithm:
      Metric: total-span
      Relations: linearized
      Effect: var-order
      Number of hyper-edges: 9
      Maximum number of iterations: 10

      Total span:   1 (total)   0.11 (avg/edge) / WES:   0.111111 (total)   0.012346 (avg/edge) [before]
      Total span:   1 (total)   0.11 (avg/edge) / WES:   0.111111 (total)   0.012346 (avg/edge) [iteration 1]
      Total span:   1 (total)   0.11 (avg/edge) / WES:   0.111111 (total)   0.012346 (avg/edge) [after]

    Applying sliding window algorithm:
      Size: 4
      Metric: total-span
      Relations: linearized
      Effect: var-order
      Number of hyper-edges: 9
      Window length: 2

      Total span:   1 (total)   0.11 (avg/edge) / WES:   0.111111 (total)   0.012346 (avg/edge) [before]
      Total span:   1 (total)   0.11 (avg/edge) / WES:   0.111111 (total)   0.012346 (avg/edge) [after]

Variable order unchanged.

Starting data-based synthesis.

Invariant (components state plant inv):      true
Invariant (locations state plant invariant): true
Invariant (system state plant invariant):    true

Invariant (components state req invariant):  true
Invariant (locations state req invariant):   true
Invariant (system state req invariant):      true

Initial   (discrete variable 0):             p.v = 3
Initial   (discrete variable 1):             true
Initial   (discrete variables):              (p.v = 1 or (p.v = 3 or p.v = 5)) and (p.v = 0 or 2 <= p.v and p.v <= 4)
Initial   (components init predicate):       true
Initial   (aut/locs init predicate):         true
Initial   (auts/locs init predicate):        true
Initial   (uncontrolled system):             (p.v = 1 or (p.v = 3 or p.v = 5)) and (p.v = 0 or 2 <= p.v and p.v <= 4)
Initial   (system, combined init/plant inv): (p.v = 1 or (p.v = 3 or p.v = 5)) and (p.v = 0 or 2 <= p.v and p.v <= 4)
Initial   (system, combined init/state inv): (p.v = 1 or (p.v = 3 or p.v = 5)) and (p.v = 0 or 2 <= p.v and p.v <= 4)

Marked    (components marker predicate):     true
Marked    (aut/locs marker predicate):       true
Marked    (auts/locs marker predicate):      true
Marked    (uncontrolled system):             true
Marked    (system, combined mark/plant inv): true
Marked    (system, combined mark/state inv): true

State/event exclusion plants:
  None

State/event exclusion requirements:
  None

Uncontrolled system:
  State: (controlled-behavior: ?)
    Edge: (event: e) (guard: p.v = 1)
    Edge: (event: e) (guard: p.v = 2)
    Edge: (event: e) (guard: p.v = 3)
    Edge: (event: e) (guard: p.v = 4)
    Edge: (event: f) (guard: p.v = 1) (assignments: p.v := p.v + 1)
    Edge: (event: f) (guard: p.v = 2) (assignments: p.v := p.v - 1)
    Edge: (event: f) (guard: p.v = 3) (assignments: p.v := p.v - 1)
    Edge: (event: f) (guard: p.v = 4) (assignments: p.v := p.v + 1)
    Edge: (event: g) (guard: p.v = 2) (assignments: p.v := p.w)

Restricting behavior using state/event exclusion plants.

Initialized controlled-behavior predicate: true.
Initialized controlled-initialization predicate: (p.v = 1 or (p.v = 3 or p.v = 5)) and (p.v = 0 or 2 <= p.v and p.v <= 4).

Restricting behavior using state requirements.

Extending controlled-behavior predicate using variable ranges.

Controlled behavior: true -> true [range: true, variable: discrete variable "p.v" of type "int[0..5]" (group: 0, domain: 0+1, BDD variables: 3, CIF/BDD values: 6/8)].
Controlled behavior: true -> true [range: true, variable: discrete variable "p.w" of type "int[0..5]" (group: 1, domain: 2+3, BDD variables: 3, CIF/BDD values: 6/8)].

Extended controlled-behavior predicate using variable ranges: true.

Restricting behavior using state/event exclusion requirements.

Round 1: started.

Round 1: computing backward controlled-behavior predicate.
Backward controlled-behavior: true [marker predicate]
Backward controlled-behavior: true -> true [restricted to current/previous controlled-behavior predicate: true]
Backward reachability: iteration 1.
Backward controlled-behavior: true [fixed point].

Round 1: computing backward uncontrolled bad-state predicate.
Backward uncontrolled bad-state: false [current/previous controlled behavior predicate]
Backward reachability: iteration 1.

Round 1: computing forward controlled-behavior predicate.
Forward controlled-behavior: (p.v = 1 or (p.v = 3 or p.v = 5)) and (p.v = 0 or 2 <= p.v and p.v <= 4) [initialization predicate]
Forward reachability: iteration 1.
Forward controlled-behavior: (p.v = 1 or (p.v = 3 or p.v = 5)) and (p.v = 0 or 2 <= p.v and p.v <= 4) -> p.v = 2 or p.v = 3 [forward reach with edge: (event: f) (guard: p.v = 3) (assignments: p.v := p.v - 1), restricted to current/previous controlled-behavior predicate: true]
Forward controlled-behavior: p.v = 2 or p.v = 3 -> p.v = 0 and p.w = 0 or p.v = 4 and p.w = 4 or (p.v = 2 and not(p.w = 2 or p.w = 3) or p.v = 2 and (p.w = 2 or p.w = 3)) or (p.v = 1 and p.w = 1 or p.v = 5 and p.w = 5 or (p.v = 3 and not(p.w = 2 or p.w = 3) or p.v = 3 and (p.w = 2 or p.w = 3))) [forward reach with edge: (event: g) (guard: p.v = 2) (assignments: p.v := p.w), restricted to current/previous controlled-behavior predicate: true]
Forward reachability: iteration 2.
Forward controlled-behavior: p.v = 0 and p.w = 0 or p.v = 4 and p.w = 4 or (p.v = 2 and not(p.w = 2 or p.w = 3) or p.v = 2 and (p.w = 2 or p.w = 3)) or (p.v = 1 and p.w = 1 or p.v = 5 and p.w = 5 or (p.v = 3 and not(p.w = 2 or p.w = 3) or p.v = 3 and (p.w = 2 or p.w = 3))) -> (p.v != 0 or p.w != 4) and (p.v != 0 or p.w != 2) and ((p.v != 0 or p.w = 0 or (p.w = 2 or p.w = 4)) and (p.v != 4 or p.w != 0)) and ((p.v != 4 or p.w != 2) and (p.v != 4 or p.w = 0 or (p.w = 2 or p.w = 4)) and ((p.v != 5 or p.w = 1 or (p.w = 3 or p.w = 5)) and ((p.v != 5 or p.w != 1) and (p.v != 5 or p.w != 3)))) [forward reach with edge: (event: f) (guard: p.v = 2) (assignments: p.v := p.v - 1), restricted to current/previous controlled-behavior predicate: true]
Forward controlled-behavior: (p.v != 0 or p.w != 4) and (p.v != 0 or p.w != 2) and ((p.v != 0 or p.w = 0 or (p.w = 2 or p.w = 4)) and (p.v != 4 or p.w != 0)) and ((p.v != 4 or p.w != 2) and (p.v != 4 or p.w = 0 or (p.w = 2 or p.w = 4)) and ((p.v != 5 or p.w = 1 or (p.w = 3 or p.w = 5)) and ((p.v != 5 or p.w != 1) and (p.v != 5 or p.w != 3)))) -> (p.v != 0 or p.w != 4) and (p.v != 0 or p.w != 2) and ((p.v != 0 or p.w = 0 or (p.w = 2 or p.w = 4)) and (p.v != 4 or p.w != 0)) and ((p.v != 4 or p.w != 2) and (p.v != 4 or p.w = 0 or (p.w = 2 or p.w = 4)) and ((p.v != 5 or 2 <= p.w and p.w <= 5) and (p.v != 5 or not(p.w = 2 or p.w = 3)))) [forward reach with edge: (event: f) (guard: p.v = 4) (assignments: p.v := p.v + 1), restricted to current/previous controlled-behavior predicate: true]
Forward reachability: iteration 3.
Forward controlled-behavior: (p.v != 0 or p.w != 4) and (p.v != 0 or p.w != 2) and ((p.v != 0 or p.w = 0 or (p.w = 2 or p.w = 4)) and (p.v != 4 or p.w != 0)) and ((p.v != 4 or p.w != 2) and (p.v != 4 or p.w = 0 or (p.w = 2 or p.w = 4)) and ((p.v != 5 or 2 <= p.w and p.w <= 5) and (p.v != 5 or not(p.w = 2 or p.w = 3)))) [fixed point].
Controlled behavior: true -> (p.v != 0 or p.w != 4) and (p.v != 0 or p.w != 2) and ((p.v != 0 or p.w = 0 or (p.w = 2 or p.w = 4)) and (p.v != 4 or p.w != 0)) and ((p.v != 4 or p.w != 2) and (p.v != 4 or p.w = 0 or (p.w = 2 or p.w = 4)) and ((p.v != 5 or 2 <= p.w and p.w <= 5) and (p.v != 5 or not(p.w = 2 or p.w = 3)))).

Round 1: finished, need another round.

Round 2: started.

Round 2: computing backward controlled-behavior predicate.
Backward controlled-behavior: true [marker predicate]
Backward controlled-behavior: true -> (p.v != 0 or p.w != 4) and (p.v != 0 or p.w != 2) and ((p.v != 0 or p.w = 0 or (p.w = 2 or p.w = 4)) and (p.v != 4 or p.w != 0)) and ((p.v != 4 or p.w != 2) and (p.v != 4 or p.w = 0 or (p.w = 2 or p.w = 4)) and ((p.v != 5 or 2 <= p.w and p.w <= 5) and (p.v != 5 or not(p.w = 2 or p.w = 3)))) [restricted to current/previous controlled-behavior predicate: (p.v != 0 or p.w != 4) and (p.v != 0 or p.w != 2) and ((p.v != 0 or p.w = 0 or (p.w = 2 or p.w = 4)) and (p.v != 4 or p.w != 0)) and ((p.v != 4 or p.w != 2) and (p.v != 4 or p.w = 0 or (p.w = 2 or p.w = 4)) and ((p.v != 5 or 2 <= p.w and p.w <= 5) and (p.v != 5 or not(p.w = 2 or p.w = 3))))]
Backward reachability: iteration 1.
Backward controlled-behavior: (p.v != 0 or p.w != 4) and (p.v != 0 or p.w != 2) and ((p.v != 0 or p.w = 0 or (p.w = 2 or p.w = 4)) and (p.v != 4 or p.w != 0)) and ((p.v != 4 or p.w != 2) and (p.v != 4 or p.w = 0 or (p.w = 2 or p.w = 4)) and ((p.v != 5 or 2 <= p.w and p.w <= 5) and (p.v != 5 or not(p.w = 2 or p.w = 3)))) [fixed point].

Round 2: computing backward uncontrolled bad-state predicate.
Backward uncontrolled bad-state: p.v = 0 and p.w = 4 or p.v = 0 and p.w = 2 or (p.v = 0 and (p.w = 1 or (p.w = 3 or p.w = 5)) or p.v = 4 and p.w = 0) or (p.v = 4 and p.w = 2 or p.v = 4 and (p.w = 1 or (p.w = 3 or p.w = 5)) or (p.v = 5 and (p.w = 0 or p.w = 1) or p.v = 5 and (p.w = 2 or p.w = 3))) [current/previous controlled behavior predicate]
Backward reachability: iteration 1.

Round 2: finished, controlled behavior is stable.

Computing controlled system guards.

Edge (event: e) (guard: p.v = 1): guard: p.v = 1 -> (p.v = 1 or (p.v = 3 or p.v = 5)) and (p.v != 5 and p.v != 3).
Edge (event: e) (guard: p.v = 2): guard: p.v = 2 -> (1 <= p.v and p.v <= 3 or p.v = 5) and (p.v = 0 or (p.v = 2 or p.v = 4)).
Edge (event: e) (guard: p.v = 3): guard: p.v = 3 -> (p.v = 1 or (p.v = 3 or p.v = 5)) and (p.v = 0 or 2 <= p.v and p.v <= 4).
Edge (event: e) (guard: p.v = 4): guard: p.v = 4 -> p.v = 4 and p.w = 4.
Edge (event: f) (guard: p.v = 1) (assignments: p.v := p.v + 1): guard: p.v = 1 -> (p.v = 1 or (p.v = 3 or p.v = 5)) and (p.v != 5 and p.v != 3).
Edge (event: f) (guard: p.v = 2) (assignments: p.v := p.v - 1): guard: p.v = 2 -> (1 <= p.v and p.v <= 3 or p.v = 5) and (p.v = 0 or (p.v = 2 or p.v = 4)).
Edge (event: f) (guard: p.v = 3) (assignments: p.v := p.v - 1): guard: p.v = 3 -> (p.v = 1 or (p.v = 3 or p.v = 5)) and (p.v = 0 or 2 <= p.v and p.v <= 4).
Edge (event: f) (guard: p.v = 4) (assignments: p.v := p.v + 1): guard: p.v = 4 -> p.v = 4 and (p.w = 4 or p.w = 5).
Edge (event: g) (guard: p.v = 2) (assignments: p.v := p.w): guard: p.v = 2 -> (1 <= p.v and p.v <= 3 or p.v = 5) and (p.v = 0 or (p.v = 2 or p.v = 4)).

Final synthesis result:
  State: (controlled-behavior: (p.v != 0 or p.w != 4) and (p.v != 0 or p.w != 2) and ((p.v != 0 or p.w = 0 or (p.w = 2 or p.w = 4)) and (p.v != 4 or p.w != 0)) and ((p.v != 4 or p.w != 2) and (p.v != 4 or p.w = 0 or (p.w = 2 or p.w = 4)) and ((p.v != 5 or 2 <= p.w and p.w <= 5) and (p.v != 5 or not(p.w = 2 or p.w = 3)))))
    Edge: (event: e) (guard: p.v = 1 -> (p.v = 1 or (p.v = 3 or p.v = 5)) and (p.v != 5 and p.v != 3))
    Edge: (event: e) (guard: p.v = 2 -> (1 <= p.v and p.v <= 3 or p.v = 5) and (p.v = 0 or (p.v = 2 or p.v = 4)))
    Edge: (event: e) (guard: p.v = 3 -> (p.v = 1 or (p.v = 3 or p.v = 5)) and (p.v = 0 or 2 <= p.v and p.v <= 4))
    Edge: (event: e) (guard: p.v = 4 -> p.v = 4 and p.w = 4)
    Edge: (event: f) (guard: p.v = 1 -> (p.v = 1 or (p.v = 3 or p.v = 5)) and (p.v != 5 and p.v != 3)) (assignments: p.v := p.v + 1)
    Edge: (event: f) (guard: p.v = 2 -> (1 <= p.v and p.v <= 3 or p.v = 5) and (p.v = 0 or (p.v = 2 or p.v = 4))) (assignments: p.v := p.v - 1)
    Edge: (event: f) (guard: p.v = 3 -> (p.v = 1 or (p.v = 3 or p.v = 5)) and (p.v = 0 or 2 <= p.v and p.v <= 4)) (assignments: p.v := p.v - 1)
    Edge: (event: f) (guard: p.v = 4 -> p.v = 4 and (p.w = 4 or p.w = 5)) (assignments: p.v := p.v + 1)
    Edge: (event: g) (guard: p.v = 2 -> (1 <= p.v and p.v <= 3 or p.v = 5) and (p.v = 0 or (p.v = 2 or p.v = 4))) (assignments: p.v := p.w)

Controlled system:                     exactly 22 states.

Initial (synthesis result):            (p.v != 0 or p.w != 4) and (p.v != 0 or p.w != 2) and ((p.v != 0 or p.w = 0 or (p.w = 2 or p.w = 4)) and (p.v != 4 or p.w != 0)) and ((p.v != 4 or p.w != 2) and (p.v != 4 or p.w = 0 or (p.w = 2 or p.w = 4)) and ((p.v != 5 or 2 <= p.w and p.w <= 5) and (p.v != 5 or not(p.w = 2 or p.w = 3))))
Initial (uncontrolled system):         (p.v = 1 or (p.v = 3 or p.v = 5)) and (p.v = 0 or 2 <= p.v and p.v <= 4)
Initial (controlled system):           (p.v = 1 or (p.v = 3 or p.v = 5)) and (p.v = 0 or 2 <= p.v and p.v <= 4)
Initial (removed by supervisor):       false
Initial (added by supervisor):         true

Constructing output CIF specification.
Writing output CIF file "datasynth/forward_reach_on.ctrlsys.real.cif".
