WARNING: Plant invariant "<bool>R.l" in the top level scope of the specification references requirement state.
WARNING: Plant invariant "not R.l" in the top level scope of the specification references requirement state.
WARNING: Plant invariant "R.l or true" in the top level scope of the specification references requirement state.
WARNING: Plant invariant "true or R.l" in the top level scope of the specification references requirement state.
WARNING: Plant invariant "if R.l: true elif true: true else true end" in the top level scope of the specification references requirement state.
WARNING: Plant invariant "if true: R.l elif true: true else true end" in the top level scope of the specification references requirement state.
WARNING: Plant invariant "if true: true elif R.l: true else true end" in the top level scope of the specification references requirement state.
WARNING: Plant invariant "if true: true elif true: R.l else true end" in the top level scope of the specification references requirement state.
WARNING: Plant invariant "if true: true elif true: true else R.l end" in the top level scope of the specification references requirement state.
WARNING: Plant invariant "switch R.l: case true: true else true end" in the top level scope of the specification references requirement state.
WARNING: Plant invariant "switch true: case R.l: true else true end" in the top level scope of the specification references requirement state.
WARNING: Plant invariant "switch true: case true: R.l else true end" in the top level scope of the specification references requirement state.
WARNING: Plant invariant "switch true: case true: true else R.l end" in the top level scope of the specification references requirement state.
WARNING: Plant invariant "[true, false][0:R.v][0]" in the top level scope of the specification references requirement state.
WARNING: Plant invariant "[true, false][R.v:1][0]" in the top level scope of the specification references requirement state.
WARNING: Plant invariant "[R.l, false][0:1][0]" in the top level scope of the specification references requirement state.
WARNING: Plant invariant "f(R.l)" in the top level scope of the specification references requirement state.
WARNING: Plant invariant "R.l in [true, false]" in the top level scope of the specification references requirement state.
WARNING: Plant invariant "true in [R.l, false]" in the top level scope of the specification references requirement state.
WARNING: Plant invariant "R.l in {true}" in the top level scope of the specification references requirement state.
WARNING: Plant invariant "true in {R.l}" in the top level scope of the specification references requirement state.
WARNING: Plant invariant "a2[0]" in the top level scope of the specification references requirement state.
WARNING: Plant invariant "true in {R.l: true}" in the top level scope of the specification references requirement state.
WARNING: Plant invariant "true in {true: R.l}" in the top level scope of the specification references requirement state.
WARNING: Plant invariant "R.l in {true: true}" in the top level scope of the specification references requirement state.
WARNING: Plant invariant "R.v = 3" in the top level scope of the specification references requirement state.
WARNING: Plant invariant "a" in the top level scope of the specification references requirement state.
WARNING: Plant invariant "b" in the top level scope of the specification references requirement state.
WARNING: Plant invariant "R2.c" in the top level scope of the specification references requirement state.
WARNING: Plant invariant "R3.c" in the top level scope of the specification references requirement state.
WARNING: Plant invariant "c1 = 0.0" in the top level scope of the specification references requirement state.
WARNING: Plant invariant "c2 = 0.0" in the top level scope of the specification references requirement state.
WARNING: Plant invariant "R4.c = 0.0" in the top level scope of the specification references requirement state.
WARNING: Plant invariant "R.l" in the top level scope of the specification references requirement state.
WARNING: Plant equation "P1.ab2 = R.l" in the location of automaton "P1" references requirement state.
WARNING: Plant equation "P1.c2' = R.v * 1.0" in the location of automaton "P1" references requirement state.
WARNING: The initial value of plant continuous variables "P2.c1" references requirement state.
WARNING: The derivative of plant continuous variables "P2.c3" references requirement state.
WARNING: An initial value of plant discrete variables "P3.d" references requirement state.
WARNING: Plant initialization predicate "R.l" in the location of automaton "P4" references requirement state.
WARNING: Plant marker predicate "R.l" in the location of automaton "P5" references requirement state.
WARNING: Plant invariant "R.l" in automaton "P6" references requirement state.
WARNING: Plant invariant "R.l" in automaton "R6" references requirement state.
WARNING: Plant edge guard "R.l" in the location of automaton "P7" references requirement state.
WARNING: Plant edge update "P8.d := R.l" in the location of automaton "P8" references requirement state.
WARNING: Plant edge update "if R.l: P9.d := true elif true: P9.d := true else P9.d := true end" in the location of automaton "P9" references requirement state.
WARNING: Plant edge update "if true: P9.d := R.l elif true: P9.d := true else P9.d := true end" in the location of automaton "P9" references requirement state.
WARNING: Plant edge update "if true: P9.d := true elif R.l: P9.d := true else P9.d := true end" in the location of automaton "P9" references requirement state.
WARNING: Plant edge update "if true: P9.d := true elif true: P9.d := R.l else P9.d := true end" in the location of automaton "P9" references requirement state.
WARNING: Plant edge update "if true: P9.d := true elif true: P9.d := true else P9.d := R.l end" in the location of automaton "P9" references requirement state.
WARNING: Plant invariant "true" in the location of automaton "R7" implicitly depends on requirement state.
ERROR: Data-based supervisory controller synthesis failed due to unsatisfied preconditions:
 - Unsupported linearized edges: non-determinism detected for edges of controllable event "P9.c_e" with overlapping guards: "true", "true", "true", "true", "true".
 - Unsupported location of automaton "P3": for state invariants, only plant and requirement invariants are supported.
 - Unsupported specification: unsupported part "<bool>R.l" of state invariant "<bool>R.l": predicate is not supported.
 - Unsupported specification: unsupported part "[R.l, false][0:1][0]" of state invariant "[R.l, false][0:1][0]": predicate is not supported.
 - Unsupported specification: unsupported part "[true, false][0:R.v][0]" of state invariant "[true, false][0:R.v][0]": predicate is not supported.
 - Unsupported specification: unsupported part "[true, false][R.v:1][0]" of state invariant "[true, false][R.v:1][0]": predicate is not supported.
 - Unsupported specification: unsupported part "a2[0]" of state invariant "a2[0]": predicate is not supported.
 - Unsupported specification: unsupported part "c1 = 0.0" of state invariant "c1 = 0.0": binary operator "=" on values of types "real" and "real" is not supported.
 - Unsupported specification: unsupported part "c2 = 0.0" of state invariant "c2 = 0.0": binary operator "=" on values of types "real" and "real" is not supported.
 - Unsupported specification: unsupported part "f(R.l)" of state invariant "f(R.l)": predicate is not supported.
 - Unsupported specification: unsupported part "R.l in [true, false]" of state invariant "R.l in [true, false]": binary operator "in" is not supported.
 - Unsupported specification: unsupported part "R.l in {true: true}" of state invariant "R.l in {true: true}": binary operator "in" is not supported.
 - Unsupported specification: unsupported part "R.l in {true}" of state invariant "R.l in {true}": binary operator "in" is not supported.
 - Unsupported specification: unsupported part "R4.c = 0.0" of state invariant "R4.c = 0.0": binary operator "=" on values of types "real" and "real" is not supported.
 - Unsupported specification: unsupported part "R5.c = 0.0" of state invariant "R5.c = 0.0": binary operator "=" on values of types "real" and "real" is not supported.
 - Unsupported specification: unsupported part "true in [R.l, false]" of state invariant "true in [R.l, false]": binary operator "in" is not supported.
 - Unsupported specification: unsupported part "true in {R.l: true}" of state invariant "true in {R.l: true}": binary operator "in" is not supported.
 - Unsupported specification: unsupported part "true in {R.l}" of state invariant "true in {R.l}": binary operator "in" is not supported.
 - Unsupported specification: unsupported part "true in {true: R.l}" of state invariant "true in {true: R.l}": binary operator "in" is not supported.
 - Unsupported update: assignments to continuous variables are not supported.
 - Unsupported update: conditional updates ('if' updates) are not supported.
 - Unsupported variable "R.v": variables with rangeless integer types are not supported.
