WARNING: Event "u1" is never enabled in the input specification, taking into account automaton guards and invariants.
WARNING: Event "u2" is never enabled in the input specification, taking into account automaton guards and invariants.
WARNING: Event "u3" is never enabled in the input specification, taking into account automaton guards and invariants.
