Loading CIF specification "controllercheck/finite_response/strongly_connected_component1.cif"...
Checking for finite response...

Iteration 1.
    The following events have been encountered in a controllable-event loop of automaton A:
        (A.e A.g), which is not controllable unconnectable.
        (A.h A.m), which is not controllable unconnectable.
        (A.l A.k), which is not controllable unconnectable.
        (A.o), which is not controllable unconnectable.
        (A.a A.c A.i), which is not controllable unconnectable.

Iteration 2.
    The following events have been encountered in a controllable-event loop of automaton A:
        (A.a A.c A.i), which is not controllable unconnectable.
        (A.e A.g), which is not controllable unconnectable.
        (A.h A.m), which is not controllable unconnectable.
        (A.o), which is not controllable unconnectable.
        (A.k A.l), which is not controllable unconnectable.

Checking for confluence...

Mutual exclusive event pairs:
    (A.a, A.b), (A.a, A.c), (A.a, A.d), (A.a, A.e), (A.a, A.f), (A.a, A.g), (A.a, A.h), (A.a, A.i), (A.a, A.j), (A.a, A.k), (A.a, A.l), (A.a, A.m), (A.a, A.n), (A.a, A.o), (A.b, A.e), (A.b, A.f), (A.b, A.g), (A.b, A.h), (A.b, A.i), (A.b, A.j), (A.b, A.k), (A.b, A.l), (A.b, A.m), (A.b, A.n), (A.b, A.o), (A.c, A.e), (A.c, A.f), (A.c, A.g), (A.c, A.h), (A.c, A.i), (A.c, A.j), (A.c, A.k), (A.c, A.l), (A.c, A.m), (A.c, A.n), (A.c, A.o), (A.d, A.e), (A.d, A.f), (A.d, A.g), (A.d, A.h), (A.d, A.i), (A.d, A.j), (A.d, A.k), (A.d, A.l), (A.d, A.m), (A.d, A.n), (A.d, A.o), (A.e, A.g), (A.e, A.h), (A.e, A.i), (A.e, A.j), (A.e, A.k), (A.e, A.l), (A.e, A.m), (A.e, A.n), (A.e, A.o), (A.f, A.g), (A.f, A.h), (A.f, A.i), (A.f, A.j), (A.f, A.k), (A.f, A.l), (A.f, A.m), (A.f, A.n), (A.f, A.o), (A.g, A.i), (A.g, A.j), (A.g, A.k), (A.g, A.l), (A.g, A.m), (A.g, A.n), (A.g, A.o), (A.h, A.i), (A.h, A.j), (A.h, A.k), (A.h, A.l), (A.h, A.m), (A.h, A.n), (A.h, A.o), (A.i, A.k), (A.i, A.l), (A.i, A.m), (A.i, A.n), (A.i, A.o), (A.j, A.k), (A.j, A.l), (A.j, A.m), (A.j, A.n), (A.j, A.o), (A.k, A.l), (A.k, A.m), (A.k, A.n), (A.k, A.o), (A.l, A.m), (A.l, A.n), (A.l, A.o)

Skippable event pairs:
    (A.m, A.o), (A.n, A.o)

CONCLUSION:
    [ERROR] The specification may NOT have finite response.
    
        At least one controllable-event loop was found.
        The following events might still occur in a controllable-event loop:
            - A.a
            - A.c
            - A.e
            - A.g
            - A.h
            - A.i
            - A.k
            - A.l
            - A.m
            - A.o

    [ERROR] The specification may NOT have confluence.
    
        Confluence of the following event pairs could not be decided:
            (A.b, A.c), (A.b, A.d), (A.c, A.d), (A.e, A.f), (A.g, A.h), (A.i, A.j), (A.m, A.n)
