State 1:
    Initial: true
    Marked: false

    Locations:
        location "X" of automaton "A"

    Valuation:
        A.xs = (true, false)
        A.ys = ((false, false), (true, true))

    Edges:
        edge tau goto state 2

State 2:
    Initial: false
    Marked: false

    Locations:
        location "Y" of automaton "A"

    Valuation:
        A.xs = (true, true)
        A.ys = ((false, false), (true, true))

    Edges:
        edge tau goto state 3

State 3:
    Initial: false
    Marked: false

    Locations:
        location "Z" of automaton "A"

    Valuation:
        A.xs = (true, true)
        A.ys = ((false, false), (false, true))
