ERROR: CIF to Supremica transformation failed due to unsatisfied preconditions:

  -------------------------------------------
  (1/43) A 'time' variable reference is used.
  -------------------------------------------
   * In location "p.l":
     - edge u do r := time;
                      ^

  ------------------------------------
  (2/43) A dictionary literal is used.
  ------------------------------------
   * In discrete variable "p.dbb":
     - disc dict(bool:bool) dbb = {true: false};
                                  ^
   * In location "p.l":
     - edge u do dbb := {true: true};
                        ^

  ---------------------------------
  (3/43) A dictionary type is used.
  ---------------------------------
   * In discrete variable "p.dbb":
     - disc dict(bool:bool) dbb = {true: false};
            ^                     ^
   * In location "p.l":
     - edge u do dbb := {true: true};
                 ^      ^

  -----------------------------------
  (4/43) A distribution type is used.
  -----------------------------------
   * In discrete variable "p.db":
     - disc dist bool db = constant(true);
            ^              ^       ^
   * In location "p.l":
     - edge u do (b, db) := sample db;
                 ^   ^      ^      ^

  -------------------------------
  (5/43) A function call is used.
  -------------------------------
   * In discrete variable "p.db":
     - disc dist bool db = constant(true);
                                   ^

  -------------------------------
  (6/43) A function type is used.
  -------------------------------
   * In discrete variable "p.db":
     - disc dist bool db = constant(true);
                           ^
   * In discrete variable "p.fbb":
     - disc func bool(bool) fbb = f;
            ^                     ^
   * In location "p.l":
     - edge u do fbb := f;
                 ^      ^

  ------------------------------
  (7/43) A list literal is used.
  ------------------------------
   * In discrete variable "p.lb":
     - disc list bool lb = [true];
                           ^

  ---------------------------
  (8/43) A list type is used.
  ---------------------------
   * In location "p.l":
     - edge u do lb := lb[:];
                 ^     ^ ^
   * In discrete variable "p.lb":
     - disc list bool lb = [true];
            ^              ^

  ---------------------------------------
  (9/43) A projection expression is used.
  ---------------------------------------
   * In location "p.l":
     - edge u do tbb[a] := true;
                    ^

  -----------------------------------------
  (10/43) A rangeless integer type is used.
  -----------------------------------------
   * In discrete variable "p.i":
     - disc int i;
            ^
   * In location "p.l":
     - edge u do i := if true: 1 else 2 end;
                 ^
     - edge u do i := switch 1: else 2 end;
                 ^
     - edge u do i := switch p: case l: 3 end;
                 ^
     - edge u do i := i div i;
                 ^    ^ ^   ^
     - edge u do i := i mod i;
                 ^    ^ ^   ^
     - edge u do b := i < i;
                      ^   ^
     - edge u do b := i <= i;
                      ^    ^
     - edge u do b := i > i;
                      ^   ^
     - edge u do b := i >= i;
                      ^    ^
     - edge u do i := +i;
                 ^    ^^
     - edge u do i := -i;
                 ^    ^^

  --------------------------------------
  (11/43) A real number literal is used.
  --------------------------------------
   * In location "p.l":
     - edge u do r := <real>1.0;
                            ^
   * In discrete variable "p.r":
     - disc real r = 1.2;
                     ^

  ----------------------------
  (12/43) A real type is used.
  ----------------------------
   * In location "p.l":
     - edge u do r := <real>1;
                 ^     ^
     - edge u do r := <real>1.0;
                 ^     ^    ^
     - edge u do r := time;
                 ^    ^
     - edge u do r := r + r;
                 ^    ^ ^ ^
     - edge u do r := r - r;
                 ^    ^ ^ ^
     - edge u do r := r * r;
                 ^    ^ ^ ^
     - edge u do r := r / r;
                 ^    ^ ^ ^
   * In discrete variable "p.r":
     - disc real r = 1.2;
            ^        ^

  ------------------------------
  (13/43) A set literal is used.
  ------------------------------
   * In location "p.l":
     - edge u do sb := {true} or {false};
                       ^         ^
     - edge u do sb := {true} and {false};
                       ^          ^
   * In discrete variable "p.sb":
     - disc set bool sb = {true};
                          ^

  ---------------------------
  (14/43) A set type is used.
  ---------------------------
   * In location "p.l":
     - edge u do sb := {true} or {false};
                 ^     ^      ^  ^
     - edge u do sb := {true} and {false};
                 ^     ^      ^   ^
     - edge u do b := true in sb;
                              ^
     - edge u do b := sb sub sb;
                      ^      ^
   * In discrete variable "p.sb":
     - disc set bool sb = {true};
            ^             ^

  -----------------------------------
  (15/43) A slice expression is used.
  -----------------------------------
   * In location "p.l":
     - edge u do lb := lb[:];
                         ^

  ---------------------------------
  (16/43) A string literal is used.
  ---------------------------------
   * In location "p.l":
     - edge u do str := "a";
                        ^
   * In discrete variable "p.str":
     - disc string str = "a";
                         ^

  ------------------------------
  (17/43) A string type is used.
  ------------------------------
   * In location "p.l":
     - edge u do str := "a";
                 ^      ^
   * In discrete variable "p.str":
     - disc string str = "a";
            ^            ^

  ------------------------------------
  (18/43) A switch expression is used.
  ------------------------------------
   * In location "p.l":
     - edge u do i := switch 1: else 2 end;
                      ^
     - edge u do i := switch p: case l: 3 end;
                      ^

  --------------------------------
  (19/43) A tuple literal is used.
  --------------------------------
   * In location "p.l":
     - edge u do (b, db) := sample db;
                 ^
   * In discrete variable "p.tbb":
     - disc tuple(bool a; bool b) tbb = (true, false);
                                        ^

  -----------------------------
  (20/43) A tuple type is used.
  -----------------------------
   * In location "p.l":
     - edge u do tbb[a] := true;
                 ^
     - edge u do (b, db) := sample db;
                 ^          ^
   * In discrete variable "p.tbb":
     - disc tuple(bool a; bool b) tbb = (true, false);
            ^                           ^

  ------------------------------------------------
  (21/43) A type-changing cast expression is used.
  ------------------------------------------------
   * In location "p.l":
     - edge u do r := <real>1;
                      ^

  -----------------------------------
  (22/43) An 'if' expression is used.
  -----------------------------------
   * In location "p.l":
     - edge u do i := if true: 1 else 2 end;
                      ^

  ------------------------------------------------------------
  (23/43) Binary operator "*" is used on a real typed operand.
  ------------------------------------------------------------
   * In location "p.l":
     - edge u do r := r * r;
                        ^

  ------------------------------------------------------------
  (24/43) Binary operator "+" is used on a real typed operand.
  ------------------------------------------------------------
   * In location "p.l":
     - edge u do r := r + r;
                        ^

  ------------------------------------------------------------
  (25/43) Binary operator "-" is used on a real typed operand.
  ------------------------------------------------------------
   * In location "p.l":
     - edge u do r := r - r;
                        ^

  ------------------------------------
  (26/43) Binary operator "/" is used.
  ------------------------------------
   * In location "p.l":
     - edge u do r := r / r;
                        ^

  -------------------------------------------------------------------------
  (27/43) Binary operator "<" is used on a rangeless integer typed operand.
  -------------------------------------------------------------------------
   * In location "p.l":
     - edge u do b := i < i;
                        ^

  --------------------------------------------------------------------------
  (28/43) Binary operator "<=" is used on a rangeless integer typed operand.
  --------------------------------------------------------------------------
   * In location "p.l":
     - edge u do b := i <= i;
                        ^

  -------------------------------------------------------------------------
  (29/43) Binary operator ">" is used on a rangeless integer typed operand.
  -------------------------------------------------------------------------
   * In location "p.l":
     - edge u do b := i > i;
                        ^

  --------------------------------------------------------------------------
  (30/43) Binary operator ">=" is used on a rangeless integer typed operand.
  --------------------------------------------------------------------------
   * In location "p.l":
     - edge u do b := i >= i;
                        ^

  -------------------------------------------------------------
  (31/43) Binary operator "and" is used on a set typed operand.
  -------------------------------------------------------------
   * In location "p.l":
     - edge u do sb := {true} and {false};
                              ^

  ---------------------------------------------------------------------------
  (32/43) Binary operator "div" is used on a rangeless integer typed operand.
  ---------------------------------------------------------------------------
   * In location "p.l":
     - edge u do i := i div i;
                        ^

  -------------------------------------
  (33/43) Binary operator "in" is used.
  -------------------------------------
   * In location "p.l":
     - edge u do b := true in sb;
                           ^

  ---------------------------------------------------------------------------
  (34/43) Binary operator "mod" is used on a rangeless integer typed operand.
  ---------------------------------------------------------------------------
   * In location "p.l":
     - edge u do i := i mod i;
                        ^

  ------------------------------------------------------------
  (35/43) Binary operator "or" is used on a set typed operand.
  ------------------------------------------------------------
   * In location "p.l":
     - edge u do sb := {true} or {false};
                              ^

  --------------------------------------
  (36/43) Binary operator "sub" is used.
  --------------------------------------
   * In location "p.l":
     - edge u do b := sb sub sb;
                         ^

  ------------------------------------
  (37/43) Edge has a multi-assignment.
  ------------------------------------
   * In location "p.l":
     - edge u do (b, db) := sample db;
                         ^

  -----------------------------------------------
  (38/43) Edge has a partial variable assignment.
  -----------------------------------------------
   * In location "p.l":
     - edge u do tbb[a] := true;
                        ^

  --------------------------------------------
  (39/43) Function is a user-defined function.
  --------------------------------------------
   * In the top-level scope of the specification:
     - func bool f(bool p):
                 ^

  -----------------------------------------------------
  (40/43) Invariant is a state invariant in a location.
  -----------------------------------------------------
   * In location "p.l":
     - plant invariant b;
                       ^

  ------------------------------------------------------------------------
  (41/43) Unary operator "+" is used on a rangeless integer typed operand.
  ------------------------------------------------------------------------
   * In location "p.l":
     - edge u do i := +i;
                      ^

  ------------------------------------------------------------------------
  (42/43) Unary operator "-" is used on a rangeless integer typed operand.
  ------------------------------------------------------------------------
   * In location "p.l":
     - edge u do i := -i;
                      ^

  ----------------------------------------
  (43/43) Unary operator "sample" is used.
  ----------------------------------------
   * In location "p.l":
     - edge u do (b, db) := sample db;
                            ^
