WARNING: File "codegen/exprs.cif": Semantic warning at line 79, column 13: Discrete variable "AA.v2" is not used anywhere in the specification.
WARNING: File "codegen/exprs.cif": Semantic warning at line 83, column 13: Discrete variable "AA.i2r" is not used anywhere in the specification.
WARNING: File "codegen/exprs.cif": Semantic warning at line 87, column 15: Discrete variable "AA.s2b" is not used anywhere in the specification.
WARNING: File "codegen/exprs.cif": Semantic warning at line 88, column 15: Discrete variable "AA.s2i" is not used anywhere in the specification.
WARNING: File "codegen/exprs.cif": Semantic warning at line 89, column 15: Discrete variable "AA.s2r" is not used anywhere in the specification.
WARNING: File "codegen/exprs.cif": Semantic warning at line 91, column 20: Discrete variable "AA.self_cast2" is not used anywhere in the specification.
WARNING: File "codegen/exprs.cif": Semantic warning at line 95, column 13: Discrete variable "AA.inv1" is not used anywhere in the specification.
WARNING: File "codegen/exprs.cif": Semantic warning at line 96, column 13: Discrete variable "AA.inv2" is not used anywhere in the specification.
WARNING: File "codegen/exprs.cif": Semantic warning at line 97, column 12: Discrete variable "AA.neg1" is not used anywhere in the specification.
WARNING: File "codegen/exprs.cif": Semantic warning at line 98, column 12: Discrete variable "AA.neg2" is not used anywhere in the specification.
WARNING: File "codegen/exprs.cif": Semantic warning at line 99, column 12: Discrete variable "AA.neg3" is not used anywhere in the specification.
WARNING: File "codegen/exprs.cif": Semantic warning at line 100, column 12: Discrete variable "AA.neg4" is not used anywhere in the specification.
WARNING: File "codegen/exprs.cif": Semantic warning at line 101, column 12: Discrete variable "AA.pos1" is not used anywhere in the specification.
WARNING: File "codegen/exprs.cif": Semantic warning at line 102, column 12: Discrete variable "AA.pos2" is not used anywhere in the specification.
WARNING: File "codegen/exprs.cif": Semantic warning at line 103, column 12: Discrete variable "AA.posneg" is not used anywhere in the specification.
WARNING: File "codegen/exprs.cif": Semantic warning at line 110, column 13: Discrete variable "AA.short_and" is not used anywhere in the specification.
WARNING: File "codegen/exprs.cif": Semantic warning at line 111, column 13: Discrete variable "AA.short_or" is not used anywhere in the specification.
WARNING: File "codegen/exprs.cif": Semantic warning at line 115, column 15: Discrete variable "AA.impl" is not used anywhere in the specification.
WARNING: File "codegen/exprs.cif": Semantic warning at line 116, column 15: Discrete variable "AA.biimpl" is not used anywhere in the specification.
WARNING: File "codegen/exprs.cif": Semantic warning at line 117, column 15: Discrete variable "AA.conj" is not used anywhere in the specification.
WARNING: File "codegen/exprs.cif": Semantic warning at line 118, column 15: Discrete variable "AA.disj" is not used anywhere in the specification.
WARNING: File "codegen/exprs.cif": Semantic warning at line 120, column 15: Discrete variable "AA.lt1" is not used anywhere in the specification.
WARNING: File "codegen/exprs.cif": Semantic warning at line 121, column 15: Discrete variable "AA.le1" is not used anywhere in the specification.
WARNING: File "codegen/exprs.cif": Semantic warning at line 122, column 15: Discrete variable "AA.gt1" is not used anywhere in the specification.
WARNING: File "codegen/exprs.cif": Semantic warning at line 123, column 15: Discrete variable "AA.ge1" is not used anywhere in the specification.
WARNING: File "codegen/exprs.cif": Semantic warning at line 125, column 15: Discrete variable "AA.lt2" is not used anywhere in the specification.
WARNING: File "codegen/exprs.cif": Semantic warning at line 126, column 15: Discrete variable "AA.le2" is not used anywhere in the specification.
WARNING: File "codegen/exprs.cif": Semantic warning at line 127, column 15: Discrete variable "AA.gt2" is not used anywhere in the specification.
WARNING: File "codegen/exprs.cif": Semantic warning at line 128, column 15: Discrete variable "AA.ge2" is not used anywhere in the specification.
WARNING: File "codegen/exprs.cif": Semantic warning at line 130, column 15: Discrete variable "AA.lt3" is not used anywhere in the specification.
WARNING: File "codegen/exprs.cif": Semantic warning at line 131, column 15: Discrete variable "AA.le3" is not used anywhere in the specification.
WARNING: File "codegen/exprs.cif": Semantic warning at line 132, column 15: Discrete variable "AA.gt3" is not used anywhere in the specification.
WARNING: File "codegen/exprs.cif": Semantic warning at line 133, column 15: Discrete variable "AA.ge3" is not used anywhere in the specification.
WARNING: File "codegen/exprs.cif": Semantic warning at line 135, column 15: Discrete variable "AA.lt4" is not used anywhere in the specification.
WARNING: File "codegen/exprs.cif": Semantic warning at line 136, column 15: Discrete variable "AA.le4" is not used anywhere in the specification.
WARNING: File "codegen/exprs.cif": Semantic warning at line 137, column 15: Discrete variable "AA.gt4" is not used anywhere in the specification.
WARNING: File "codegen/exprs.cif": Semantic warning at line 138, column 15: Discrete variable "AA.ge4" is not used anywhere in the specification.
WARNING: File "codegen/exprs.cif": Semantic warning at line 140, column 15: Discrete variable "AA.eq1" is not used anywhere in the specification.
WARNING: File "codegen/exprs.cif": Semantic warning at line 141, column 15: Discrete variable "AA.eq2" is not used anywhere in the specification.
WARNING: File "codegen/exprs.cif": Semantic warning at line 142, column 15: Discrete variable "AA.eq3" is not used anywhere in the specification.
WARNING: File "codegen/exprs.cif": Semantic warning at line 143, column 15: Discrete variable "AA.eq4" is not used anywhere in the specification.
WARNING: File "codegen/exprs.cif": Semantic warning at line 144, column 15: Discrete variable "AA.eq5" is not used anywhere in the specification.
WARNING: File "codegen/exprs.cif": Semantic warning at line 146, column 15: Discrete variable "AA.ne1" is not used anywhere in the specification.
WARNING: File "codegen/exprs.cif": Semantic warning at line 147, column 15: Discrete variable "AA.ne2" is not used anywhere in the specification.
WARNING: File "codegen/exprs.cif": Semantic warning at line 148, column 15: Discrete variable "AA.ne3" is not used anywhere in the specification.
WARNING: File "codegen/exprs.cif": Semantic warning at line 149, column 15: Discrete variable "AA.ne4" is not used anywhere in the specification.
WARNING: File "codegen/exprs.cif": Semantic warning at line 150, column 15: Discrete variable "AA.ne5" is not used anywhere in the specification.
WARNING: File "codegen/exprs.cif": Semantic warning at line 152, column 15: Discrete variable "AA.add1" is not used anywhere in the specification.
WARNING: File "codegen/exprs.cif": Semantic warning at line 153, column 15: Discrete variable "AA.add2" is not used anywhere in the specification.
WARNING: File "codegen/exprs.cif": Semantic warning at line 154, column 15: Discrete variable "AA.add3" is not used anywhere in the specification.
WARNING: File "codegen/exprs.cif": Semantic warning at line 155, column 15: Discrete variable "AA.add4" is not used anywhere in the specification.
WARNING: File "codegen/exprs.cif": Semantic warning at line 156, column 15: Discrete variable "AA.add5" is not used anywhere in the specification.
WARNING: File "codegen/exprs.cif": Semantic warning at line 157, column 15: Discrete variable "AA.add6" is not used anywhere in the specification.
WARNING: File "codegen/exprs.cif": Semantic warning at line 158, column 15: Discrete variable "AA.add7" is not used anywhere in the specification.
WARNING: File "codegen/exprs.cif": Semantic warning at line 159, column 15: Discrete variable "AA.add8" is not used anywhere in the specification.
WARNING: File "codegen/exprs.cif": Semantic warning at line 161, column 15: Discrete variable "AA.sub1" is not used anywhere in the specification.
WARNING: File "codegen/exprs.cif": Semantic warning at line 162, column 15: Discrete variable "AA.sub2" is not used anywhere in the specification.
WARNING: File "codegen/exprs.cif": Semantic warning at line 163, column 15: Discrete variable "AA.sub3" is not used anywhere in the specification.
WARNING: File "codegen/exprs.cif": Semantic warning at line 164, column 15: Discrete variable "AA.sub4" is not used anywhere in the specification.
WARNING: File "codegen/exprs.cif": Semantic warning at line 165, column 15: Discrete variable "AA.sub5" is not used anywhere in the specification.
WARNING: File "codegen/exprs.cif": Semantic warning at line 166, column 15: Discrete variable "AA.sub6" is not used anywhere in the specification.
WARNING: File "codegen/exprs.cif": Semantic warning at line 167, column 15: Discrete variable "AA.sub7" is not used anywhere in the specification.
WARNING: File "codegen/exprs.cif": Semantic warning at line 169, column 15: Discrete variable "AA.mul1" is not used anywhere in the specification.
WARNING: File "codegen/exprs.cif": Semantic warning at line 170, column 15: Discrete variable "AA.mul2" is not used anywhere in the specification.
WARNING: File "codegen/exprs.cif": Semantic warning at line 171, column 15: Discrete variable "AA.mul3" is not used anywhere in the specification.
WARNING: File "codegen/exprs.cif": Semantic warning at line 172, column 15: Discrete variable "AA.mul4" is not used anywhere in the specification.
WARNING: File "codegen/exprs.cif": Semantic warning at line 173, column 15: Discrete variable "AA.mul5" is not used anywhere in the specification.
WARNING: File "codegen/exprs.cif": Semantic warning at line 174, column 15: Discrete variable "AA.mul6" is not used anywhere in the specification.
WARNING: File "codegen/exprs.cif": Semantic warning at line 175, column 15: Discrete variable "AA.mul7" is not used anywhere in the specification.
WARNING: File "codegen/exprs.cif": Semantic warning at line 177, column 15: Discrete variable "AA.rdiv1" is not used anywhere in the specification.
WARNING: File "codegen/exprs.cif": Semantic warning at line 178, column 15: Discrete variable "AA.rdiv2" is not used anywhere in the specification.
WARNING: File "codegen/exprs.cif": Semantic warning at line 179, column 15: Discrete variable "AA.rdiv3" is not used anywhere in the specification.
WARNING: File "codegen/exprs.cif": Semantic warning at line 180, column 15: Discrete variable "AA.rdiv4" is not used anywhere in the specification.
WARNING: File "codegen/exprs.cif": Semantic warning at line 181, column 15: Discrete variable "AA.rdiv5" is not used anywhere in the specification.
WARNING: File "codegen/exprs.cif": Semantic warning at line 182, column 15: Discrete variable "AA.rdiv6" is not used anywhere in the specification.
WARNING: File "codegen/exprs.cif": Semantic warning at line 184, column 15: Discrete variable "AA.div1" is not used anywhere in the specification.
WARNING: File "codegen/exprs.cif": Semantic warning at line 185, column 15: Discrete variable "AA.div2" is not used anywhere in the specification.
WARNING: File "codegen/exprs.cif": Semantic warning at line 186, column 15: Discrete variable "AA.div3" is not used anywhere in the specification.
WARNING: File "codegen/exprs.cif": Semantic warning at line 187, column 15: Discrete variable "AA.div4" is not used anywhere in the specification.
WARNING: File "codegen/exprs.cif": Semantic warning at line 189, column 15: Discrete variable "AA.mod1" is not used anywhere in the specification.
WARNING: File "codegen/exprs.cif": Semantic warning at line 190, column 15: Discrete variable "AA.mod2" is not used anywhere in the specification.
WARNING: File "codegen/exprs.cif": Semantic warning at line 197, column 12: Discrete variable "AA.proj1" is not used anywhere in the specification.
WARNING: File "codegen/exprs.cif": Semantic warning at line 198, column 12: Discrete variable "AA.proj2" is not used anywhere in the specification.
WARNING: File "codegen/exprs.cif": Semantic warning at line 199, column 12: Discrete variable "AA.proj3" is not used anywhere in the specification.
WARNING: File "codegen/exprs.cif": Semantic warning at line 200, column 12: Discrete variable "AA.proj4" is not used anywhere in the specification.
WARNING: File "codegen/exprs.cif": Semantic warning at line 201, column 15: Discrete variable "AA.proj5" is not used anywhere in the specification.
WARNING: File "codegen/exprs.cif": Semantic warning at line 202, column 15: Discrete variable "AA.proj6" is not used anywhere in the specification.
WARNING: File "codegen/exprs.cif": Semantic warning at line 206, column 13: Discrete variable "AA.f_acos" is not used anywhere in the specification.
WARNING: File "codegen/exprs.cif": Semantic warning at line 207, column 13: Discrete variable "AA.f_asin" is not used anywhere in the specification.
WARNING: File "codegen/exprs.cif": Semantic warning at line 208, column 13: Discrete variable "AA.f_atan" is not used anywhere in the specification.
WARNING: File "codegen/exprs.cif": Semantic warning at line 209, column 13: Discrete variable "AA.f_cos" is not used anywhere in the specification.
WARNING: File "codegen/exprs.cif": Semantic warning at line 210, column 13: Discrete variable "AA.f_sin" is not used anywhere in the specification.
WARNING: File "codegen/exprs.cif": Semantic warning at line 211, column 13: Discrete variable "AA.f_tan" is not used anywhere in the specification.
WARNING: File "codegen/exprs.cif": Semantic warning at line 212, column 13: Discrete variable "AA.f_abs1" is not used anywhere in the specification.
WARNING: File "codegen/exprs.cif": Semantic warning at line 213, column 13: Discrete variable "AA.f_abs12" is not used anywhere in the specification.
WARNING: File "codegen/exprs.cif": Semantic warning at line 214, column 13: Discrete variable "AA.f_abs2" is not used anywhere in the specification.
WARNING: File "codegen/exprs.cif": Semantic warning at line 215, column 13: Discrete variable "AA.f_cbrt" is not used anywhere in the specification.
WARNING: File "codegen/exprs.cif": Semantic warning at line 216, column 13: Discrete variable "AA.f_ceil" is not used anywhere in the specification.
WARNING: File "codegen/exprs.cif": Semantic warning at line 217, column 13: Discrete variable "AA.f_empty" is not used anywhere in the specification.
WARNING: File "codegen/exprs.cif": Semantic warning at line 218, column 13: Discrete variable "AA.f_exp" is not used anywhere in the specification.
WARNING: File "codegen/exprs.cif": Semantic warning at line 219, column 13: Discrete variable "AA.f_floor" is not used anywhere in the specification.
WARNING: File "codegen/exprs.cif": Semantic warning at line 220, column 13: Discrete variable "AA.f_ln" is not used anywhere in the specification.
WARNING: File "codegen/exprs.cif": Semantic warning at line 221, column 13: Discrete variable "AA.f_log" is not used anywhere in the specification.
WARNING: File "codegen/exprs.cif": Semantic warning at line 222, column 13: Discrete variable "AA.f_max1" is not used anywhere in the specification.
WARNING: File "codegen/exprs.cif": Semantic warning at line 223, column 13: Discrete variable "AA.f_max2" is not used anywhere in the specification.
WARNING: File "codegen/exprs.cif": Semantic warning at line 224, column 13: Discrete variable "AA.f_max3" is not used anywhere in the specification.
WARNING: File "codegen/exprs.cif": Semantic warning at line 225, column 13: Discrete variable "AA.f_max4" is not used anywhere in the specification.
WARNING: File "codegen/exprs.cif": Semantic warning at line 226, column 13: Discrete variable "AA.f_min1" is not used anywhere in the specification.
WARNING: File "codegen/exprs.cif": Semantic warning at line 227, column 13: Discrete variable "AA.f_min2" is not used anywhere in the specification.
WARNING: File "codegen/exprs.cif": Semantic warning at line 228, column 13: Discrete variable "AA.f_min3" is not used anywhere in the specification.
WARNING: File "codegen/exprs.cif": Semantic warning at line 229, column 13: Discrete variable "AA.f_min4" is not used anywhere in the specification.
WARNING: File "codegen/exprs.cif": Semantic warning at line 230, column 13: Discrete variable "AA.f_pow1" is not used anywhere in the specification.
WARNING: File "codegen/exprs.cif": Semantic warning at line 231, column 13: Discrete variable "AA.f_pow12" is not used anywhere in the specification.
WARNING: File "codegen/exprs.cif": Semantic warning at line 232, column 13: Discrete variable "AA.f_pow2" is not used anywhere in the specification.
WARNING: File "codegen/exprs.cif": Semantic warning at line 233, column 13: Discrete variable "AA.f_pow3" is not used anywhere in the specification.
WARNING: File "codegen/exprs.cif": Semantic warning at line 234, column 13: Discrete variable "AA.f_pow4" is not used anywhere in the specification.
WARNING: File "codegen/exprs.cif": Semantic warning at line 235, column 13: Discrete variable "AA.f_round" is not used anywhere in the specification.
WARNING: File "codegen/exprs.cif": Semantic warning at line 236, column 13: Discrete variable "AA.f_scale" is not used anywhere in the specification.
WARNING: File "codegen/exprs.cif": Semantic warning at line 237, column 13: Discrete variable "AA.f_sign1" is not used anywhere in the specification.
WARNING: File "codegen/exprs.cif": Semantic warning at line 238, column 13: Discrete variable "AA.f_sign2" is not used anywhere in the specification.
WARNING: File "codegen/exprs.cif": Semantic warning at line 239, column 13: Discrete variable "AA.f_size1" is not used anywhere in the specification.
WARNING: File "codegen/exprs.cif": Semantic warning at line 240, column 13: Discrete variable "AA.f_size2" is not used anywhere in the specification.
WARNING: File "codegen/exprs.cif": Semantic warning at line 241, column 13: Discrete variable "AA.f_sqrt" is not used anywhere in the specification.
